Library\Bee\artifacts\mvdfrm\UnityEditor.TestRunner.ref.dll_193EC4CE382CBFB3.mvfrm
Library\Bee\artifacts\mvdfrm\UnityEditor.UI.ref.dll_4C98D3F7040CD4F5.mvfrm
Library\Bee\artifacts\mvdfrm\UnityEngine.TestRunner.ref.dll_E55D0F7C63F01D9E.mvfrm
Library\Bee\artifacts\mvdfrm\UnityEngine.UI.ref.dll_08FEAA520A2EFD60.mvfrm
Library\Bee\artifacts\mvdfrm\UnityEditor.Graphs.dll_5D7A4758BE2B8524.mvfrm
Library\Bee\artifacts\mvdfrm\UnityEditor.CoreModule.dll_954F3B1A69646CF2.mvfrm
Library\Bee\artifacts\mvdfrm\UnityEditor.DeviceSimulatorModule.dll_F10A78A96906516F.mvfrm
Library\Bee\artifacts\mvdfrm\UnityEditor.DiagnosticsModule.dll_1DBE6A77469A0FFD.mvfrm
Library\Bee\artifacts\mvdfrm\UnityEditor.dll_326BB917D337EA03.mvfrm
Library\Bee\artifacts\mvdfrm\UnityEditor.GraphViewModule.dll_5CA3369DDB299634.mvfrm
Library\Bee\artifacts\mvdfrm\UnityEditor.PackageManagerUIModule.dll_0C2F980CFAFAFFCE.mvfrm
Library\Bee\artifacts\mvdfrm\UnityEditor.QuickSearchModule.dll_A8CDEB849F710C56.mvfrm
Library\Bee\artifacts\mvdfrm\UnityEditor.SceneTemplateModule.dll_8076C3179E0AD197.mvfrm
Library\Bee\artifacts\mvdfrm\UnityEditor.TextCoreFontEngineModule.dll_A574BA31F6CEC630.mvfrm
Library\Bee\artifacts\mvdfrm\UnityEditor.TextCoreTextEngineModule.dll_ED5CF0A386527F4E.mvfrm
Library\Bee\artifacts\mvdfrm\UnityEditor.UIBuilderModule.dll_B12BE3BA4DE20F68.mvfrm
Library\Bee\artifacts\mvdfrm\UnityEditor.UIElementsModule.dll_15EDCC4DCE54EAEE.mvfrm
Library\Bee\artifacts\mvdfrm\UnityEditor.UIElementsSamplesModule.dll_59509B9B30827F5F.mvfrm
Library\Bee\artifacts\mvdfrm\UnityEditor.UIServiceModule.dll_EA1DF51D37195F82.mvfrm
Library\Bee\artifacts\mvdfrm\UnityEditor.UnityConnectModule.dll_E28B0B547B3D94A8.mvfrm
Library\Bee\artifacts\mvdfrm\UnityEngine.AccessibilityModule.dll_B31C2EAE9E80F934.mvfrm
Library\Bee\artifacts\mvdfrm\UnityEngine.AIModule.dll_A3E6A3E30CA31106.mvfrm
Library\Bee\artifacts\mvdfrm\UnityEngine.AndroidJNIModule.dll_9436B521177459C4.mvfrm
Library\Bee\artifacts\mvdfrm\UnityEngine.AnimationModule.dll_2B28B2C6B5866ADA.mvfrm
Library\Bee\artifacts\mvdfrm\UnityEngine.ARModule.dll_5D5968E669C06FCF.mvfrm
Library\Bee\artifacts\mvdfrm\UnityEngine.AssetBundleModule.dll_ECB71E7601D7C148.mvfrm
Library\Bee\artifacts\mvdfrm\UnityEngine.AudioModule.dll_E8D32F85128A854C.mvfrm
Library\Bee\artifacts\mvdfrm\UnityEngine.ClothModule.dll_4FBB8C7FECA76430.mvfrm
Library\Bee\artifacts\mvdfrm\UnityEngine.ClusterInputModule.dll_6227806A2CC5676E.mvfrm
Library\Bee\artifacts\mvdfrm\UnityEngine.ClusterRendererModule.dll_F6B73B1AD8C15EF3.mvfrm
Library\Bee\artifacts\mvdfrm\UnityEngine.CoreModule.dll_B8700E6D1169D81D.mvfrm
Library\Bee\artifacts\mvdfrm\UnityEngine.CrashReportingModule.dll_91132CB597741FD5.mvfrm
Library\Bee\artifacts\mvdfrm\UnityEngine.DirectorModule.dll_E7A0710D6660C57A.mvfrm
Library\Bee\artifacts\mvdfrm\UnityEngine.dll_650FFFF031AB76E8.mvfrm
Library\Bee\artifacts\mvdfrm\UnityEngine.DSPGraphModule.dll_ECF1D276D8C1969B.mvfrm
Library\Bee\artifacts\mvdfrm\UnityEngine.GameCenterModule.dll_BE83FF3BDDB54AB5.mvfrm
Library\Bee\artifacts\mvdfrm\UnityEngine.GIModule.dll_3C22ECF0A851F920.mvfrm
Library\Bee\artifacts\mvdfrm\UnityEngine.GridModule.dll_95E12A5B29BE6E14.mvfrm
Library\Bee\artifacts\mvdfrm\UnityEngine.HotReloadModule.dll_AC7170CC90B9865C.mvfrm
Library\Bee\artifacts\mvdfrm\UnityEngine.ImageConversionModule.dll_62A938CB5AE616E7.mvfrm
Library\Bee\artifacts\mvdfrm\UnityEngine.IMGUIModule.dll_2132CEEBD8BC192D.mvfrm
Library\Bee\artifacts\mvdfrm\UnityEngine.InputLegacyModule.dll_7DFC399499C97739.mvfrm
Library\Bee\artifacts\mvdfrm\UnityEngine.InputModule.dll_4F48F73588C2A9F0.mvfrm
Library\Bee\artifacts\mvdfrm\UnityEngine.JSONSerializeModule.dll_1333B7EA9DBC59BE.mvfrm
Library\Bee\artifacts\mvdfrm\UnityEngine.LocalizationModule.dll_A0744ABCC4415A67.mvfrm
Library\Bee\artifacts\mvdfrm\UnityEngine.NVIDIAModule.dll_0C4B464CF526E229.mvfrm
Library\Bee\artifacts\mvdfrm\UnityEngine.ParticleSystemModule.dll_E42576020585AB63.mvfrm
Library\Bee\artifacts\mvdfrm\UnityEngine.PerformanceReportingModule.dll_EF0D7DE0B276C9DC.mvfrm
Library\Bee\artifacts\mvdfrm\UnityEngine.Physics2DModule.dll_77CEA2B75683626F.mvfrm
Library\Bee\artifacts\mvdfrm\UnityEngine.PhysicsModule.dll_0E13B2BF08D5119D.mvfrm
Library\Bee\artifacts\mvdfrm\UnityEngine.ProfilerModule.dll_19E6AA43FFBA4C87.mvfrm
Library\Bee\artifacts\mvdfrm\UnityEngine.RuntimeInitializeOnLoadManagerInitializerModule.dll_A4E8CD2BDE683138.mvfrm
Library\Bee\artifacts\mvdfrm\UnityEngine.ScreenCaptureModule.dll_2D1B656FB2288620.mvfrm
Library\Bee\artifacts\mvdfrm\UnityEngine.SharedInternalsModule.dll_E6BA77A0D2141237.mvfrm
Library\Bee\artifacts\mvdfrm\UnityEngine.SpriteMaskModule.dll_A7B071CBFF24E02F.mvfrm
Library\Bee\artifacts\mvdfrm\UnityEngine.SpriteShapeModule.dll_06184BD0B779F952.mvfrm
Library\Bee\artifacts\mvdfrm\UnityEngine.StreamingModule.dll_DFBDA017050E2218.mvfrm
Library\Bee\artifacts\mvdfrm\UnityEngine.SubstanceModule.dll_BC68B46050612026.mvfrm
Library\Bee\artifacts\mvdfrm\UnityEngine.SubsystemsModule.dll_125DD82DCD6CC842.mvfrm
Library\Bee\artifacts\mvdfrm\UnityEngine.TerrainModule.dll_285A2E2DDE935A8B.mvfrm
Library\Bee\artifacts\mvdfrm\UnityEngine.TerrainPhysicsModule.dll_E4A01ED51EC8A5F0.mvfrm
Library\Bee\artifacts\mvdfrm\UnityEngine.TextCoreFontEngineModule.dll_23D4358509CC84FB.mvfrm
Library\Bee\artifacts\mvdfrm\UnityEngine.TextCoreTextEngineModule.dll_6BBC6BF699503E19.mvfrm
Library\Bee\artifacts\mvdfrm\UnityEngine.TextRenderingModule.dll_565AD77A69600615.mvfrm
Library\Bee\artifacts\mvdfrm\UnityEngine.TilemapModule.dll_C75695AEF6503B94.mvfrm
Library\Bee\artifacts\mvdfrm\UnityEngine.TLSModule.dll_14ED63CA78BA3331.mvfrm
Library\Bee\artifacts\mvdfrm\UnityEngine.UIElementsModule.dll_169C3995D0990439.mvfrm
Library\Bee\artifacts\mvdfrm\UnityEngine.UIElementsNativeModule.dll_56A94CA26C736FF0.mvfrm
Library\Bee\artifacts\mvdfrm\UnityEngine.UIModule.dll_9F5A421068EA16B2.mvfrm
Library\Bee\artifacts\mvdfrm\UnityEngine.UmbraModule.dll_63A7DB9D9FB130BF.mvfrm
Library\Bee\artifacts\mvdfrm\UnityEngine.UNETModule.dll_4B1656565E78CD96.mvfrm
Library\Bee\artifacts\mvdfrm\UnityEngine.UnityAnalyticsCommonModule.dll_8A4C3B24CC5F683A.mvfrm
Library\Bee\artifacts\mvdfrm\UnityEngine.UnityAnalyticsModule.dll_03C4E6CBB1ACFD5F.mvfrm
Library\Bee\artifacts\mvdfrm\UnityEngine.UnityConnectModule.dll_CFEA8F6375C59553.mvfrm
Library\Bee\artifacts\mvdfrm\UnityEngine.UnityCurlModule.dll_5E4553F8259A5CC7.mvfrm
Library\Bee\artifacts\mvdfrm\UnityEngine.UnityTestProtocolModule.dll_1513518D8A7DD4B5.mvfrm
Library\Bee\artifacts\mvdfrm\UnityEngine.UnityWebRequestAssetBundleModule.dll_DB7E651582ED8F70.mvfrm
Library\Bee\artifacts\mvdfrm\UnityEngine.UnityWebRequestAudioModule.dll_6709D1BF38E19474.mvfrm
Library\Bee\artifacts\mvdfrm\UnityEngine.UnityWebRequestModule.dll_7448407565DAB166.mvfrm
Library\Bee\artifacts\mvdfrm\UnityEngine.UnityWebRequestTextureModule.dll_3E4B59D6954A00C9.mvfrm
Library\Bee\artifacts\mvdfrm\UnityEngine.UnityWebRequestWWWModule.dll_367EB152890FFA85.mvfrm
Library\Bee\artifacts\mvdfrm\UnityEngine.VehiclesModule.dll_5F636A8CE08A9515.mvfrm
Library\Bee\artifacts\mvdfrm\UnityEngine.VFXModule.dll_95CBFC394F279C9E.mvfrm
Library\Bee\artifacts\mvdfrm\UnityEngine.VideoModule.dll_0DDCB3EFD51CA0F1.mvfrm
Library\Bee\artifacts\mvdfrm\UnityEngine.VirtualTexturingModule.dll_7B3601114521F07B.mvfrm
Library\Bee\artifacts\mvdfrm\UnityEngine.VRModule.dll_F22C68960AA49C2A.mvfrm
Library\Bee\artifacts\mvdfrm\UnityEngine.WindModule.dll_2EBEE995A2A05686.mvfrm
Library\Bee\artifacts\mvdfrm\UnityEngine.XRModule.dll_24EB2B9A93DEE988.mvfrm
Library\Bee\artifacts\mvdfrm\UnityEditor.WindowsStandalone.Extensions.dll_3ABDF6BC8C6035CE.mvfrm
Library\Bee\artifacts\mvdfrm\Unity.Burst.Cecil.dll_75D19B266D937034.mvfrm
Library\Bee\artifacts\mvdfrm\Unity.Burst.Cecil.Mdb.dll_C13DB90F039B2071.mvfrm
Library\Bee\artifacts\mvdfrm\Unity.Burst.Cecil.Pdb.dll_D890317E825021F4.mvfrm
Library\Bee\artifacts\mvdfrm\Unity.Burst.Cecil.Rocks.dll_3D8389D6923D2894.mvfrm
Library\Bee\artifacts\mvdfrm\Unity.Burst.Unsafe.dll_F4828FC654A5D61F.mvfrm
Library\Bee\artifacts\mvdfrm\Unity.Plastic.Antlr3.Runtime.dll_73B2EB0D16289050.mvfrm
Library\Bee\artifacts\mvdfrm\Unity.Plastic.Newtonsoft.Json.dll_DF42D2C59A4CBFE5.mvfrm
Library\Bee\artifacts\mvdfrm\Unity.SharpZipLib.dll_E7796AE5DF0020F4.mvfrm
Library\Bee\artifacts\mvdfrm\Unity.VisualScripting.IonicZip.dll_57177C13EA954B8D.mvfrm
Library\Bee\artifacts\mvdfrm\Unity.VisualScripting.YamlDotNet.dll_24E552565B4CB3FF.mvfrm
Library\Bee\artifacts\mvdfrm\Unity.VisualScripting.TextureAssets.dll_BC037BAA1C1A11F7.mvfrm
Library\Bee\artifacts\mvdfrm\Unity.VisualScripting.Antlr3.Runtime.dll_D65279378C15C41E.mvfrm